[gd_scene load_steps=4 format=2]

[ext_resource path="res://Art/Power_Pellet.png" type="Texture2D" id=1]
[ext_resource path="res://Assets/Pellet.gd" type="Script" id=2]

[sub_resource type="CircleShape2D" id=1]
radius = 4.0

[node name="Power_Pellet" type="Area2D"]
script = ExtResource( 2 )
__meta__ = {
"_edit_group_": true
}

[node name="CollisionShape2D" type="CollisionShape2D" parent="."]
shape = SubResource( 1 )

[node name="Power_Pellet" type="Sprite2D" parent="."]
position = Vector2( 0.5, 0.5 )
texture = ExtResource( 1 )

[connection signal="body_entered" from="." to="." method="_on_Pellet_body_entered"]
